{
    "photos": [
        {
            "id": 1,
            "name": "First image",
            "image_url": "images/image-1.jpg",
            "author": "Alex",
            "width": "1600"
        },
        {
            "id": 2,
            "name": "Second image",
            "image_url": "images/image-2.jpg",
            "author": "Alex",
            "width": "1920"
        },
        {
            "id": 3,
            "name": "Third image",
            "image_url": "images/image-3.jpg",
            "author": "Alex",
            "width": "1920"
        },
        {
            "id": 4,
            "name": "Fourth image",
            "image_url": "images/image-4.jpg",
            "author": "Alex",
            "width": "1600"
        },
        {
            "id": 5,
            "name": "Fifth image",
            "image_url": "images/image-5.jpg",
            "author": "Alex",
            "width": "1920"
        },
        {
            "id": 6,
            "name": "Sixth image",
            "image_url": "images/image-6.jpg",
            "author": "Denys",
            "width": "2560"
        },
        {
            "id": 7,
            "name": "Seventh image",
            "image_url": "images/image-7.jpg",
            "author": "Denys",
            "width": "1920"
        },
        {
            "id": 8,
            "name": "Eighth image",
            "image_url": "images/image-8.jpg",
            "author": "Denys",
            "width": "1300"
        },
        {
            "id": 9,
            "name": "Ninth image",
            "image_url": "images/image-9.jpg",
            "author": "Denys",
            "width": "1900"
        },
        {
            "id": 10,
            "name": "Tenth image",
            "image_url": "images/image-10.jpg",
            "author": "Denys",
            "width": "1920"
        },
        {
            "id": 11,
            "name": "Eleventh image",
            "image_url": "images/image-11.jpg",
            "author": "Denys",
            "width": "1920"
        },
        {
            "id": 12,
            "name": "Twelfth image",
            "image_url": "images/image-12.jpg",
            "author": "Denys",
            "width": "1920"
        },
        {
            "id": 13,
            "name": "Thirteenth image",
            "image_url": "images/image-13.jpg",
            "author": "Denys",
            "width": "500"
        },
        {
            "id": 14,
            "name": "Fourteenth image",
            "image_url": "images/image-14.jpg",
            "author": "Denys",
            "width": "2560"
        },
        {
            "id": 15,
            "name": "Fifteenth image",
            "image_url": "images/image-15.jpg",
            "author": "Igor",
            "width": "2560"
        },
        {
            "id": 16,
            "name": "Sixteenth image",
            "image_url": "images/image-16.jpg",
            "author": "Igor",
            "width": "728"
        },
        {
            "id": 17,
            "name": "Seventeenth image",
            "image_url": "images/image-17.jpg",
            "author": "Igor",
            "width": "500"
        },
        {
            "id": 18,
            "name": "Eighteenth image",
            "image_url": "images/image-18.jpg",
            "author": "Igor",
            "width": "2560"
        },
        {
            "id": 19,
            "name": "Ninteenth image",
            "image_url": "images/image-19.jpg",
            "author": "Igor",
            "width": "1300"
        },
        {
            "id": 20,
            "name": "Twentieth image",
            "image_url": "images/image-20.jpg",
            "author": "Igor",
            "width": "1200"
        },
        {
            "id": 21,
            "name": "Twenty-first",
            "image_url": "images/image-21.jpg",
            "author": "Igor",
            "width": "2560"
        },
        {
            "id": 22,
            "name": "Twenty-second image",
            "image_url": "images/image-22.jpg",
            "author": "Igor",
            "width": "1600"
        },
        {
            "id": 23,
            "name": "First image",
            "image_url": "images/image-23.jpg",
            "author": "Igor",
            "width": "1920"
        },
        {
            "id": 24,
            "name": "Image-24",
            "image_url": "images/image-24.jpg",
            "author": "Alex",
            "width": "1920"
        },
        {
            "id": 25,
            "name": "Image-25",
            "image_url": "images/image-25.jpg",
            "author": "Denys",
            "width": "1920"
        },
        {
            "id": 26,
            "name": "Image-26",
            "image_url": "images/image-26.jpg",
            "author": "Igor",
            "width": "1920"
        },
        {
            "id": 27,
            "name": "Image-27",
            "image_url": "images/image-27.jpg",
            "author": "Igor",
            "width": "1920"
        },
        {
            "id": 28,
            "name": "Image-28",
            "image_url": "images/image-28.jpg",
            "author": "Alex",
            "width": "1920"
        },
        {
            "id": 29,
            "name": "Image-29",
            "image_url": "images/image-29.jpg",
            "author": "Denys",
            "width": "1900"
        },
        {
            "id": 30,
            "name": "Image-30",
            "image_url": "images/image-30.jpg",
            "author": "Igor",
            "width": "1800"
        },
        {
            "id": 31,
            "name": "Image-31",
            "image_url": "images/image-31.jpg",
            "author": "Alex",
            "width": "1920"
        },
        {
            "id": 32,
            "name": "Image-32",
            "image_url": "images/image-32.jpg",
            "author": "Denys",
            "width": "1600"
        },
        {
            "id": 33,
            "name": "Image-33",
            "image_url": "images/image-33.jpg",
            "author": "Igor",
            "width": "1600"
        },
        {
            "id": 34,
            "name": "Image-34",
            "image_url": "images/image-34.jpg",
            "author": "Alex",
            "width": "1920"
        },
        {
            "id": 35,
            "name": "Image-35",
            "image_url": "images/image-35.jpg",
            "author": "Denys",
            "width": "1600"
        },
        {
            "id": 36,
            "name": "Image-36",
            "image_url": "images/image-36.jpg",
            "author": "Igor",
            "width": "1800"
        },
        {
            "id": 37,
            "name": "Image-37",
            "image_url": "images/image-37.jpg",
            "author": "Alex",
            "width": "1920"
        },
        {
            "id": 38,
            "name": "Image-38",
            "image_url": "images/image-38.jpg",
            "author": "Denys",
            "width": "1200"
        },
        {
            "id": 39,
            "name": "Image-39",
            "image_url": "images/image-39.jpg",
            "author": "Igor",
            "width": "1920"
        },
        {
            "id": 40,
            "name": "Image-40",
            "image_url": "images/image-40.jpg",
            "author": "Alex",
            "width": "1600"
        },
        {
            "id": 41,
            "name": "Image-41",
            "image_url": "images/image-41.jpg",
            "author": "Denys",
            "width": "1520"
        },
        {
            "id": 42,
            "name": "Image-42",
            "image_url": "images/image-42.jpg",
            "author": "Igor",
            "width": "1200"
        },
        {
            "id": 43,
            "name": "Image-43",
            "image_url": "images/image-43.jpg",
            "author": "Alex",
            "width": "1600"
        },
        {
            "id": 44,
            "name": "Image-44",
            "image_url": "images/image-44.jpg",
            "author": "Denys",
            "width": "1200"
        },
        {
            "id": 45,
            "name": "Image-45",
            "image_url": "images/image-45.jpg",
            "author": "Igor",
            "width": "1600"
        },
        {
            "id": 46,
            "name": "image-46",
            "image_url": "images/image-46.jpg",
            "author": "Alex",
            "width": "1600"
        },
        {
            "id": 47,
            "name": "Image-47",
            "image_url": "images/image-47.jpg",
            "author": "Denys",
            "width": "1600"
        }
    ]
}